Removed Pin From Net: NetName=NetU1_1 Pin=U?-19
Removed Pin From Net: NetName=NetU1_5 Pin=U?-20
Removed Pin From Net: NetName=NetU2_1 Pin=U?-21
Removed Pin From Net: NetName=NetU2_5 Pin=U?-22
Removed Pin From Net: NetName=NetU3_1 Pin=U?-23
Removed Pin From Net: NetName=NetU3_5 Pin=U?-24
Removed Pin From Net: NetName=NetU4_1 Pin=U?-25
Removed Pin From Net: NetName=VCC Pin=U?-27
Removed Pin From Net: NetName=GND Pin=U?-29
Added Member To Class: ClassName=Sheet1 Member=Component U3 LM358AN
Added Room: Name=Sheet1
